<?xml version="1.0" encoding="utf-8"?>
<!-- Generator: Adobe Illustrator 16.0.0, SVG Export Plug-In . SVG Version: 6.00 Build 0)  -->
<!DOCTYPE svg PUBLIC "-//W3C//DTD SVG 1.1//EN" "http://www.w3.org/Graphics/SVG/1.1/DTD/svg11.dtd">
<svg version="1.1" id="Capa_1" xmlns="http://www.w3.org/2000/svg" xmlns:xlink="http://www.w3.org/1999/xlink" x="0px" y="0px"
	 width="300px" height="67.083px" viewBox="0 0 300 67.083" enable-background="new 0 0 300 67.083" xml:space="preserve">
<path d="M273.09,0.095h-1.63L248.85,56.38l-13.446-20.423v-0.061c21.582,0,23.895-35.85-6.201-35.85h-23.115h-0.765v5.217
	c-5.162-3.312-11.268-5.203-17.851-5.203c-9.137,0-17.53,3.721-23.5,9.864c-0.38,0.385-0.752,0.781-1.115,1.184
	c-5.488-6.582-13.889-11.012-25.197-11.012h-22.601V63.07L89.745,0.095h-1.63L71.471,41.139
	c-8.188-14.928-40.859-0.786-42.468-22.18c-0.285-3.657,0.575-7.126,2.97-10.031C35.995,3.77,43.177,1.52,49.497,1.425
	c6.033-0.092,12.642,1.688,16.759,6.001c1.916,2.063,3.064,4.407,3.64,7.126l0.095,0.75l1.437-0.282l-0.096-0.748
	C69.464,4.535,59.41-0.181,49.377,0.008c-10.565,0-49.359-0.018-49.377,0v1.43h14.27v64.161H0v1.437h48.792
	c0.335,0.014,0.665,0.02,0.993,0.02c12.736,0,26.144-8.249,23.079-22.126c-0.029-0.136-0.067-0.266-0.1-0.398h33.066l9.194,22.505
	h0.033h1.595h21.006c11.313,0,19.714-4.434,25.204-11.019c0.36,0.399,0.73,0.794,1.108,1.178c5.97,6.142,14.363,9.862,23.5,9.862
	c9.234,0,17.534-3.721,23.596-9.862c5.968-6.049,9.792-14.424,9.792-23.637c0-9.211-3.824-17.585-9.792-23.633
	c-1.333-1.352-2.772-2.585-4.309-3.687V1.517h22.443c27.438,0,26.631,33.16,4.757,33.16h-0.389v1.28l20.495,31.126h1.831
	l-6.032-9.16l5.413-13.393h33.902l9.19,22.505H300L273.09,0.095z M49.88,65.649c-9.098,0-20.302-4.969-21.356-14.813l-0.095-0.655
	l-1.53,0.188l0.094,0.656c0.808,7.424,6.88,12.313,13.807,14.574H15.71V1.438h25.046c-4.011,1.315-7.571,3.533-10.026,6.645
	c-2.491,3.188-3.544,7.031-3.162,10.97c1.725,24.47,39.552,6.658,43.859,26.158C74.206,58.244,61.563,65.649,49.88,65.649
	 M72.601,43.095L88.882,2.106l16.376,40.988H72.601z M137.659,65.599h-21.165V1.533h21.165c10.908,0,18.985,4.313,24.232,10.701
	c-4.763,5.791-7.712,13.234-7.712,21.323c0,8.094,2.953,15.541,7.717,21.332C156.649,61.282,148.572,65.599,137.659,65.599
	 M162.847,53.668c-4.437-5.477-7.174-12.442-7.174-20.11c0-7.661,2.735-14.625,7.169-20.102
	C171.301,24.934,171.304,42.19,162.847,53.668 M205.322,60.025c-5.11,3.499-11.268,5.544-17.851,5.544
	c-8.764,0-16.691-3.631-22.475-9.49c-0.403-0.413-0.798-0.836-1.183-1.269c9.083-12.071,9.08-30.43-0.003-42.498
	c0.385-0.436,0.779-0.859,1.186-1.271c5.783-5.865,13.711-9.491,22.475-9.491c6.583,0,12.74,2.042,17.851,5.542V60.025z
	 M210.042,11.042c5.688,5.768,9.23,13.679,9.23,22.516c0,8.841-3.542,16.75-9.23,22.521c-1.026,1.038-2.124,2.008-3.283,2.9V8.14
	C207.918,9.03,209.016,10,210.042,11.042 M255.947,43.095l16.281-40.988l16.374,40.988H255.947z"/>
</svg>
